{
    "page": 1,
    "total_results": 1014,
    "total_pages": 51,
    "results": [
        {
            "popularity": 1.176,
            "id": 727425,
            "video": false,
            "vote_count": 1,
            "vote_average": 8,
            "title": "Pokémon Live!",
            "release_date": "2000-09-22",
            "original_language": "en",
            "original_title": "Pokémon Live!",
            "genre_ids": [
                10402,
                12,
                14,
                878,
                35
            ],
            "backdrop_path": "/zkchRmlu394q4jNMvEBa8Ltbt8N.jpg",
            "adult": false,
            "overview": "Pokémon Live! was a musical stage show that toured the United States on September 22, 2000 to January 19, 2001.",
            "poster_path": "/2oK7JlfSZKfO86AObZx64wPPvhW.jpg"
        },
        {
            "popularity": 0.6,
            "id": 726346,
            "video": false,
            "vote_count": 1,
            "vote_average": 8,
            "title": "KINGS OF THE DESERT",
            "release_date": "2017-07-10",
            "original_language": "en",
            "original_title": "KINGS OF THE DESERT",
            "genre_ids": [
                99,
                28,
                12
            ],
            "backdrop_path": "/mUlRM8R6a54wC9CicetmLM4TgOB.jpg",
            "adult": false,
            "overview": "",
            "poster_path": null
        },
        {
            "popularity": 0.6,
            "id": 716734,
            "video": false,
            "vote_count": 1,
            "vote_average": 8,
            "title": "Jawker Dhan",
            "release_date": "2017-08-04",
            "original_language": "bn",
            "original_title": "Jawker Dhan",
            "genre_ids": [
                28,
                12,
                9648
            ],
            "backdrop_path": "/30nPaKhgrxV48OmnbwpGdYR3HOI.jpg",
            "adult": false,
            "overview": "Kumar discovers a puzzle engraved in a human skull. The skull was stored by his grandfather long ago. Unable to solve the puzzle he consults with his close friend Bimal to find out the secret behind it. Bimal is adventurous and also a professor of Anthropometry. They solve the puzzle and realise that this is nothing but a clue of hidden Tibetan treasure which is concealed in an undisclosed spot in a dense jungles of Neora Valley. By this time Bimal's elder brother, Hiranmoy is Kidnapped by some unknown group. Bimal and Kumar together start an adventure to recover the treasure and rescue Hiranmoy but one Karali is also in a hunt for this treasure. Karali is ruthless and dare to capture it at any cost.",
            "poster_path": "/43dzn5uoWXok5YybJyFWYelb5L.jpg"
        },
        {
            "popularity": 0.6,
            "vote_count": 1,
            "video": false,
            "poster_path": "/iuLkBRQxzlMw5vA3R4yqr9mV1ZO.jpg",
            "id": 716626,
            "adult": false,
            "backdrop_path": null,
            "original_language": "ru",
            "original_title": "Linden Tar",
            "genre_ids": [
                12,
                16
            ],
            "title": "Linden Tar",
            "vote_average": 8,
            "overview": "",
            "release_date": "2016-05-22"
        },
        {
            "popularity": 0.6,
            "id": 708930,
            "video": true,
            "vote_count": 1,
            "vote_average": 8,
            "title": "Journey To Kenya",
            "release_date": "2020-01-22",
            "original_language": "ar",
            "original_title": "Journey To Kenya",
            "genre_ids": [
                99,
                12
            ],
            "backdrop_path": "/jqgf7XZru6Q6chOg8PcgRhkMCZ6.jpg",
            "adult": false,
            "overview": "Award winning short documentary by Ibrahim Snoopy, tracks the journey of the MTC martial arts team, which decides after a civil revolution that occurred in Sudan (2018-2019).  Facing of lack of the state support and weak financial means, ambitious athletes found themselves forced to travel by land from Sudan to Kenya through Ethiopia to participate in an international championship \"LionHeart 2019 Nairobi Open\" in Nairobi , Kenya.  A journey filled with determination , resilience ,hope , and full of difficulties and challenges in order to raise the name of Sudan high in international sports forums and to solidify the art of Jiu-Jitsu in Africa.",
            "poster_path": "/3jWwtu9KXa6m3ZQ1h5SzcTdgd8t.jpg"
        },
        {
            "popularity": 0.932,
            "vote_count": 1,
            "video": false,
            "poster_path": "/mYZpogLgmfyUFJmMNtrlrIKqPQ9.jpg",
            "id": 702599,
            "adult": false,
            "backdrop_path": null,
            "original_language": "en",
            "original_title": "Arabian Nights",
            "genre_ids": [
                12,
                14,
                10751
            ],
            "title": "Arabian Nights",
            "vote_average": 8,
            "overview": "To cure a Prince's murderous madness, Scheherezade tells him a series of wonderous stories.",
            "release_date": "2000-01-01"
        },
        {
            "popularity": 1.4,
            "id": 694445,
            "video": false,
            "vote_count": 1,
            "vote_average": 8,
            "title": "Pippi Longstocking",
            "release_date": "2019-12-16",
            "original_language": "fi",
            "original_title": "Peppi Pitkätossu",
            "genre_ids": [
                10402,
                12,
                10751
            ],
            "backdrop_path": "/nOWHdyn0U8MyUkQT5v7RFaNy8VY.jpg",
            "adult": false,
            "overview": "Pippi Longstocking, a superhuman girl, extremely strong, redhead with pigtails and freckles, moves to Villa Villekulla, a wooden house located in a small town, together with her monkey, Mr. Nilsson, and her horse, Little Old Man. She soon befriends the children who live next door, Tommy and Annika, with whom she will live many fun adventures. (Finnish National Opera and Ballet, December 14th, 2019.)",
            "poster_path": "/hkL4SCbRH6ZmZLr7fi9ry8Qj0AO.jpg"
        },
        {
            "popularity": 0.6,
            "vote_count": 1,
            "video": false,
            "poster_path": null,
            "id": 691311,
            "adult": false,
            "backdrop_path": null,
            "original_language": "de",
            "original_title": "Jäger der verlorenen Handys - Minecraft Kurzfilm",
            "genre_ids": [
                12,
                16,
                35
            ],
            "title": "Jäger der verlorenen Handys - Minecraft Kurzfilm",
            "vote_average": 8,
            "overview": "",
            "release_date": "2016-06-16"
        },
        {
            "popularity": 0.6,
            "id": 687148,
            "video": false,
            "vote_count": 1,
            "vote_average": 8,
            "title": "Pietro der Korsar",
            "release_date": "1925-02-19",
            "original_language": "de",
            "original_title": "Pietro der Korsar",
            "genre_ids": [
                12
            ],
            "backdrop_path": null,
            "adult": false,
            "overview": "",
            "poster_path": "/eTEXffejfeAfJiOOkymtQ1PWupc.jpg"
        },
        {
            "popularity": 0.89,
            "vote_count": 1,
            "video": false,
            "poster_path": "/yeer7m3fXQI8wAmnZjb0VS6XIkk.jpg",
            "id": 684752,
            "adult": false,
            "backdrop_path": null,
            "original_language": "fr",
            "original_title": "L'hypothèse de la reine rouge",
            "genre_ids": [
                12,
                9648
            ],
            "title": "L'hypothèse de la reine rouge",
            "vote_average": 8,
            "overview": "The legendary detective Sherlock Holmes and the elusive thief Arsene Lupin will unite their intelligence to stop the evil planes of the dangerous Fantomas.",
            "release_date": "2018-03-27"
        },
        {
            "popularity": 0.6,
            "vote_count": 1,
            "video": false,
            "poster_path": "/vScSrrqaBRd3oAZlpum9fOl9zDn.jpg",
            "id": 682790,
            "adult": false,
            "backdrop_path": null,
            "original_language": "es",
            "original_title": "El duelo",
            "genre_ids": [
                12,
                36
            ],
            "title": "The Duel",
            "vote_average": 8,
            "overview": "The story of two Knights confronted over time by the memories of a childhood in which they were friends.",
            "release_date": "2018-05-04"
        },
        {
            "popularity": 1.4,
            "vote_count": 1,
            "video": false,
            "poster_path": "/96ZVJ8pXkSn4QKCF1ptdcYU7Xqm.jpg",
            "id": 682153,
            "adult": false,
            "backdrop_path": "/jggAbxH2LCinmaDC1lNQmwoZyet.jpg",
            "original_language": "ja",
            "original_title": "映画ドラえもん のび太の新恐竜",
            "genre_ids": [
                12,
                16
            ],
            "title": "Doraemon: Nobita's New Dinosaur",
            "vote_average": 8,
            "overview": "Doraemon the Movie: Nobita's New Dinosaur (映画ドラえもん のび太の新恐竜, Eiga Doraemon: Nobita no Shin Kyōryū) is an upcoming film. It is a sequel to Doraemon: Nobita's Dinosaur or its 2006 remake and it's a completely different story than the original.",
            "release_date": "2020-03-06"
        },
        {
            "popularity": 0.6,
            "id": 679968,
            "video": false,
            "vote_count": 1,
            "vote_average": 8,
            "title": "Fukusuke",
            "release_date": "1957-10-29",
            "original_language": "ja",
            "original_title": "ふくすけ",
            "genre_ids": [
                16,
                35,
                10751,
                12,
                28
            ],
            "backdrop_path": null,
            "adult": false,
            "overview": "The story of a top-heavy frog.",
            "poster_path": "/pgDn3EdVc6kPrrt0Yo7Plb1O2iA.jpg"
        },
        {
            "popularity": 0.909,
            "vote_count": 1,
            "video": false,
            "poster_path": "/x5AQGzvsQ1WsUnLk9I582tKeqNl.jpg",
            "id": 665585,
            "adult": false,
            "backdrop_path": "/jwtygolSSaOVZ0Hft2yxYKROzjN.jpg",
            "original_language": "ja",
            "original_title": "うたえメロエッタ リンカのみをさがせ",
            "genre_ids": [
                12,
                16,
                35
            ],
            "title": "Sing Meloetta: Search for the Rinka Berries",
            "vote_average": 8,
            "overview": "Meowth and Wobbuffet sit on a cliff near a crystal cave, with Meowth thinking about how beautiful Meloetta is. Suddenly, Meloetta flies past, searching for something, then flies off. Meowth and Wobbuffet take off after it.",
            "release_date": "2012-07-03"
        },
        {
            "popularity": 2.716,
            "vote_count": 17,
            "video": false,
            "poster_path": "/bzgm7s2PERs6PRuhO6xQsQzJQlK.jpg",
            "id": 664422,
            "adult": false,
            "backdrop_path": "/6h73hGnKdHRABn9yc1SGUo7mQBC.jpg",
            "original_language": "pt",
            "original_title": "Detetives do Prédio Azul 3: Uma Aventura no Fim do Mundo",
            "genre_ids": [
                12,
                10751
            ],
            "title": "Detetives do Prédio Azul 3: Uma Aventura no Fim do Mundo",
            "vote_average": 8,
            "overview": "",
            "release_date": "2020-06-25"
        },
        {
            "popularity": 1.768,
            "id": 659262,
            "video": false,
            "vote_count": 1,
            "vote_average": 8,
            "title": "Mashin Sentai Kiramager: Episode ZERO",
            "release_date": "2020-02-08",
            "original_language": "ja",
            "original_title": "魔進戦隊キラメイジャー エピソードZERO",
            "genre_ids": [
                28,
                12,
                878,
                14
            ],
            "backdrop_path": "/uuZT8tizZRO8PObWOBwTOhrhHez.jpg",
            "adult": false,
            "overview": "In Mashin Sentai Kiramager: Episode ZERO, a princess from the land of jewelry and Kirama Stones comes to Earth in search of people with a \"shining spirit\" called Kiramental, a source of outstanding charm and talent to transform them into heroes, the Kiramagers to fight the evil Yodon Army.",
            "poster_path": "/yJONKLvsodyRnH7ZtoPO7Ha6Hp2.jpg"
        },
        {
            "popularity": 2.339,
            "vote_count": 2,
            "video": false,
            "poster_path": "/ihreWh3z89SYk20C8iyrIkinhZ2.jpg",
            "id": 657811,
            "adult": false,
            "backdrop_path": "/hnQJH9mVCARAam1ibrtvQdw0Fi9.jpg",
            "original_language": "de",
            "original_title": "Lassie - Eine abenteuerliche Reise",
            "genre_ids": [
                12,
                18,
                10751
            ],
            "title": "Lassie Come Home",
            "vote_average": 8,
            "overview": "Remake of 1943 movie based on Eric Knight's book, \"Lassie Come Home\"",
            "release_date": "2020-02-20"
        },
        {
            "popularity": 1.24,
            "vote_count": 1,
            "video": false,
            "poster_path": "/kkhZ6qMTkFijZVWxWbuaaclVif9.jpg",
            "id": 655789,
            "adult": false,
            "backdrop_path": null,
            "original_language": "ja",
            "original_title": "コードギアス 反逆のルルーシュ R2 Special Edition 'Zero Requiem'",
            "genre_ids": [
                28,
                12,
                16,
                18,
                878,
                10752
            ],
            "title": "Code Geass: Hangyaku no Lelouch R2 Special Edition Zero Requiem",
            "vote_average": 8,
            "overview": "An OVA summarizing all 25 episodes of season 2.",
            "release_date": "2009-07-24"
        },
        {
            "popularity": 0.6,
            "vote_count": 1,
            "video": false,
            "poster_path": "/shY15doOrlsXMZfgHOMnkBAAx4B.jpg",
            "id": 654747,
            "adult": false,
            "backdrop_path": "/dQd1KKDWAUJtZx1PekYPTYlulHa.jpg",
            "original_language": "ko",
            "original_title": "신비아파트: 하늘도깨비 대 요르문간드",
            "genre_ids": [
                28,
                12,
                16,
                14,
                53
            ],
            "title": "The Haunted House: The Sky Ghost VS Jormungandr",
            "vote_average": 8,
            "overview": "",
            "release_date": "2019-12-19"
        },
        {
            "popularity": 1.69,
            "vote_count": 1,
            "video": false,
            "poster_path": "/A2Epbqom1x4OjyLcPTJt1K4UqEL.jpg",
            "id": 648969,
            "adult": false,
            "backdrop_path": "/eU2txyWiV24BQE7YHNI1ASrDrU6.jpg",
            "original_language": "ja",
            "original_title": "ガンダム 『Gのレコンギスタ I』「行け！コア・ファイター」",
            "genre_ids": [
                12,
                16,
                878,
                10752
            ],
            "title": "Gundam Reconguista in G Movie I: Go! Core Fighter",
            "vote_average": 8,
            "overview": "The new era begins!  The turbulent era known as the Universal Century has ended. Now, mankind looks towards prosperity and peace in the new era known as the Regild Century (R.C.). One of the most important resources in this era is the Capital Tower - a space elevator which towers over the land connecting Earth to space. Its purpose, to transport the Photon Batteries the Earth relies on for power. It is worshiped as a holy place.  Tasked with protecting the tower, one day on a practice mission, young Capital Guard cadet Bellri Zenam is attacked by a high-performance G-Self Mobile Suit. Despite having never before encountered the G-Self, he feels a strange connection to it and its pilot, a space pirate called Aida Surugan.  Little does Bellri know that he is about to uncover truths which will shake the entire Regild Century.  Go! Core Fighter is the first of five films compiling the 2014 Gundam Reconguista in G TV series, featuring new cuts and alterations.",
            "release_date": "2019-11-29"
        }
    ]
}