{
    "page": 1,
    "total_results": 10000,
    "total_pages": 500,
    "results": [
        {
            "popularity": 166.471,
            "vote_count": 2859,
            "video": false,
            "poster_path": "/mb7wQv0adK3kjOUr9n93mANHhPJ.jpg",
            "id": 583083,
            "adult": false,
            "backdrop_path": "/wO5QSWZPBT71gMLvrRex0bVc0V9.jpg",
            "original_language": "en",
            "original_title": "The Kissing Booth 2",
            "genre_ids": [
                35,
                10749
            ],
            "title": "The Kissing Booth 2",
            "vote_average": 8.2,
            "overview": "With college decisions looming, Elle juggles her long-distance romance with Noah, changing relationship with bestie Lee and feelings for a new classmate.",
            "release_date": "2020-07-24"
        },
        {
            "popularity": 134.66,
            "vote_count": 113,
            "video": false,
            "poster_path": "/bKthjUmxjHjvJK8FktFfQdmwP12.jpg",
            "id": 703745,
            "adult": false,
            "backdrop_path": "/hIHtyIYgBqHybOgUdoAmveipuiO.jpg",
            "original_language": "en",
            "original_title": "Deep Blue Sea 3",
            "genre_ids": [
                28,
                27,
                878
            ],
            "title": "Deep Blue Sea 3",
            "vote_average": 6.6,
            "overview": "Dr. Emma Collins and her team are spending their third summer on the island of Little Happy studying the effect of climate change on the great white sharks who come to the nearby nursery every year to give birth. Along with the last two inhabitants of this former fishing village, their peaceful life is disrupted when a \"scientific\" team led by her ex-boyfriend and marine biologist Richard show up looking for three bull sharks who we soon learn aren't just any bull sharks.",
            "release_date": "2020-07-28"
        },
        {
            "popularity": 99.802,
            "vote_count": 7070,
            "video": false,
            "poster_path": "/fMMrl8fD9gRCFJvsx0SuFwkEOop.jpg",
            "id": 338952,
            "adult": false,
            "backdrop_path": "/qrtRKRzoNkf5vemO9tJ2Y4DrHxQ.jpg",
            "original_language": "en",
            "original_title": "Fantastic Beasts: The Crimes of Grindelwald",
            "genre_ids": [
                12,
                14,
                10751
            ],
            "title": "Fantastic Beasts: The Crimes of Grindelwald",
            "vote_average": 6.9,
            "overview": "Gellert Grindelwald has escaped imprisonment and has begun gathering followers to his cause—elevating wizards above all non-magical beings. The only one capable of putting a stop to him is the wizard he once called his closest friend, Albus Dumbledore. However, Dumbledore will need to seek help from the wizard who had thwarted Grindelwald once before, his former student Newt Scamander, who agrees to help, unaware of the dangers that lie ahead. Lines are drawn as love and loyalty are tested, even among the truest friends and family, in an increasingly divided wizarding world.",
            "release_date": "2018-11-14"
        },
        {
            "popularity": 113.868,
            "vote_count": 347,
            "video": false,
            "poster_path": "/jHo2M1OiH9Re33jYtUQdfzPeUkx.jpg",
            "id": 385103,
            "adult": false,
            "backdrop_path": "/fKtYXUhX5fxMxzQfyUcQW9Shik6.jpg",
            "original_language": "en",
            "original_title": "Scoob!",
            "genre_ids": [
                12,
                16,
                35,
                9648,
                10751
            ],
            "title": "Scoob!",
            "vote_average": 7.6,
            "overview": "In Scooby-Doo’s greatest adventure yet, see the never-before told story of how lifelong friends Scooby and Shaggy first met and how they joined forces with young detectives Fred, Velma, and Daphne to form the famous Mystery Inc. Now, with hundreds of cases solved, Scooby and the gang face their biggest, toughest mystery ever: an evil plot to unleash the ghost dog Cerberus upon the world. As they race to stop this global “dogpocalypse,” the gang discovers that Scooby has a secret legacy and an epic destiny greater than anyone ever imagined.",
            "release_date": "2020-07-08"
        },
        {
            "popularity": 106.159,
            "vote_count": 802,
            "video": false,
            "poster_path": "/kjMbDciooTbJPofVXgAoFjfX8Of.jpg",
            "id": 516486,
            "adult": false,
            "backdrop_path": "/xXBnM6uSTk6qqCf0SRZKXcga9Ba.jpg",
            "original_language": "en",
            "original_title": "Greyhound",
            "genre_ids": [
                28,
                18,
                10752
            ],
            "title": "Greyhound",
            "vote_average": 7.5,
            "overview": "A first-time captain leads a convoy of allied ships carrying thousands of soldiers across the treacherous waters of the “Black Pit” to the front lines of WW2. With no air cover protection for 5 days, the captain and his convoy must battle the surrounding enemy Nazi U-boats in order to give the allies a chance to win the war.",
            "release_date": "2020-06-19"
        },
        {
            "popularity": 132.103,
            "vote_count": 33,
            "video": false,
            "poster_path": "/vFIHbiy55smzi50RmF8LQjmpGcx.jpg",
            "id": 703771,
            "adult": false,
            "backdrop_path": "/owraiceOKtSOa3t8sp3wA9K2Ox6.jpg",
            "original_language": "en",
            "original_title": "Deathstroke: Knights & Dragons - The Movie",
            "genre_ids": [
                28,
                16
            ],
            "title": "Deathstroke: Knights & Dragons - The Movie",
            "vote_average": 7.7,
            "overview": "Ten years ago, Slade Wilson-aka the super-assassin called Deathstroke-made a tragic mistake and his wife and son paid a terrible price. Now, a decade later, Wilson's family is threatened once again by the murderous Jackal and the terrorists of H.IV.E. Can Deathstroke atone for the sins of the past-or will his family pay the ultimate price?",
            "release_date": "2020-08-04"
        },
        {
            "popularity": 94.024,
            "vote_count": 14156,
            "video": false,
            "poster_path": "/udDclJoHjfjb8Ekgsd4FDteOkCU.jpg",
            "id": 475557,
            "adult": false,
            "backdrop_path": "/n6bUvigpRFqSwmPp1m2YADdbRBc.jpg",
            "original_language": "en",
            "original_title": "Joker",
            "genre_ids": [
                80,
                18,
                53
            ],
            "title": "Joker",
            "vote_average": 8.2,
            "overview": "During the 1980s, a failed stand-up comedian is driven insane and turns to a life of crime and chaos in Gotham City while becoming an infamous psychopathic crime figure.",
            "release_date": "2019-10-02"
        },
        {
            "popularity": 70.442,
            "vote_count": 26705,
            "video": false,
            "poster_path": "/9gk7adHYeDvHkCSEqAvQNLV5Uge.jpg",
            "id": 27205,
            "adult": false,
            "backdrop_path": "/s3TBrRGB1iav7gFOCNx3H31MoES.jpg",
            "original_language": "en",
            "original_title": "Inception",
            "genre_ids": [
                28,
                12,
                878
            ],
            "title": "Inception",
            "vote_average": 8.3,
            "overview": "Cobb, a skilled thief who commits corporate espionage by infiltrating the subconscious of his targets is offered a chance to regain his old life as payment for a task considered to be impossible: \"inception\", the implantation of another person's idea into a target's subconscious.",
            "release_date": "2010-07-15"
        },
        {
            "popularity": 83.966,
            "vote_count": 17,
            "video": false,
            "poster_path": "/7B1gSxMdgZCCJcMRgo65T5lByMw.jpg",
            "id": 695596,
            "adult": false,
            "backdrop_path": "/zFjL6CurOHiWb4Am4nzVHul28KH.jpg",
            "original_language": "en",
            "original_title": "Malibu Rescue: The Next Wave",
            "genre_ids": [
                28,
                35
            ],
            "title": "Malibu Rescue: The Next Wave",
            "vote_average": 7.1,
            "overview": "It’s summer again, and everyone’s favorite Junior Rescuers, The Flounders, are back at Tower 2. With the International Junior Rescue Championships headed to Southern California, the eyes of the entire planet are on Malibu Beach. But when Team USA falls victim to a bout of food poisoning, it’s up to Tyler, Dylan, Eric, Lizzie and Gina to represent their country in the world's most extreme lifeguard challenge!",
            "release_date": "2020-08-04"
        },
        {
            "popularity": 67.497,
            "vote_count": 31,
            "video": false,
            "poster_path": "/bhNHCeJDFDaB00A46AoCw2mggdE.jpg",
            "id": 601165,
            "adult": false,
            "backdrop_path": "/nxxODhq9I05Ze9uLONGvfDrzaUO.jpg",
            "original_language": "en",
            "original_title": "Legacy of Lies",
            "genre_ids": [
                28,
                53
            ],
            "title": "Legacy of Lies",
            "vote_average": 5.9,
            "overview": "An ex-MI6 agent is thrown back into the world of espionage and high stakes to uncover the shocking truth about operations conducted by unknown secret services.",
            "release_date": "2020-08-06"
        },
        {
            "popularity": 69.667,
            "vote_count": 1551,
            "video": false,
            "poster_path": "/cjr4NWURcVN3gW5FlHeabgBHLrY.jpg",
            "id": 547016,
            "adult": false,
            "backdrop_path": "/m0ObOaJBerZ3Unc74l471ar8Iiy.jpg",
            "original_language": "en",
            "original_title": "The Old Guard",
            "genre_ids": [
                28,
                14
            ],
            "title": "The Old Guard",
            "vote_average": 7.4,
            "overview": "Four undying warriors who've secretly protected humanity for centuries become targeted for their mysterious powers just as they discover a new immortal.",
            "release_date": "2020-07-10"
        },
        {
            "popularity": 67.772,
            "vote_count": 5342,
            "video": false,
            "poster_path": "/h4VB6m0RwcicVEZvzftYZyKXs6K.jpg",
            "id": 495764,
            "adult": false,
            "backdrop_path": "/9xNOiv6DZZjH7ABoUUDP0ZynouU.jpg",
            "original_language": "en",
            "original_title": "Birds of Prey (and the Fantabulous Emancipation of One Harley Quinn)",
            "genre_ids": [
                28,
                35,
                80,
                18
            ],
            "title": "Birds of Prey (and the Fantabulous Emancipation of One Harley Quinn)",
            "vote_average": 7.2,
            "overview": "Harley Quinn joins forces with a singer, an assassin and a police detective to help a young girl who had a hit placed on her after she stole a rare diamond from a crime lord.",
            "release_date": "2020-02-05"
        },
        {
            "popularity": 79.813,
            "vote_count": 137,
            "video": false,
            "poster_path": "/ijJm0RSeKIr67qkHLtSmtigS6ra.jpg",
            "id": 430155,
            "adult": false,
            "backdrop_path": "/8HbqSozBJxv6UldR9lMUECUlbLI.jpg",
            "original_language": "ru",
            "original_title": "Кома",
            "genre_ids": [
                28,
                14,
                878
            ],
            "title": "Coma",
            "vote_average": 6.1,
            "overview": "A young and talented architect comes to his senses after a horrific accident only to find himself in the odd dystopian world. A world that is filled with the memories of all current coma patients. Just like a human memory this world is fragmental, chaotic and unstable. This is COMA: icecaps, rivers and cities can all exist in a space of a single room and laws of physics are no longer laws as they can be bent.",
            "release_date": "2019-11-19"
        },
        {
            "popularity": 72.254,
            "vote_count": 19202,
            "video": false,
            "poster_path": "/7WsyChQLEftFiDOVTGkv3hFpyyt.jpg",
            "id": 299536,
            "adult": false,
            "backdrop_path": "/bOGkgRGdhrBYJSLpXaxhXVstddV.jpg",
            "original_language": "en",
            "original_title": "Avengers: Infinity War",
            "genre_ids": [
                28,
                12,
                878
            ],
            "title": "Avengers: Infinity War",
            "vote_average": 8.3,
            "overview": "As the Avengers and their allies have continued to protect the world from threats too large for any one hero to handle, a new danger has emerged from the cosmic shadows: Thanos. A despot of intergalactic infamy, his goal is to collect all six Infinity Stones, artifacts of unimaginable power, and use them to inflict his twisted will on all of reality. Everything the Avengers have fought for has led up to this moment - the fate of Earth and existence itself has never been more uncertain.",
            "release_date": "2018-04-25"
        },
        {
            "popularity": 67.91,
            "vote_count": 5384,
            "video": false,
            "poster_path": "/db32LaOibwEliAmSL2jjDF6oDdj.jpg",
            "id": 181812,
            "adult": false,
            "backdrop_path": "/SPkEiZGxq5aHWQ2Zw7AITwSEo2.jpg",
            "original_language": "en",
            "original_title": "Star Wars: The Rise of Skywalker",
            "genre_ids": [
                28,
                12,
                878
            ],
            "title": "Star Wars: The Rise of Skywalker",
            "vote_average": 6.6,
            "overview": "The surviving Resistance faces the First Order once again as the journey of Rey, Finn and Poe Dameron continues. With the power and knowledge of generations behind them, the final battle begins.",
            "release_date": "2019-12-18"
        },
        {
            "popularity": 67.444,
            "vote_count": 5198,
            "video": false,
            "poster_path": "/7Dktk2ST6aL8h9Oe5rpk903VLhx.jpg",
            "id": 454983,
            "adult": false,
            "backdrop_path": "/itiz2OBK4ns6XT0ufXtusojmMt9.jpg",
            "original_language": "en",
            "original_title": "The Kissing Booth",
            "genre_ids": [
                35,
                10749
            ],
            "title": "The Kissing Booth",
            "vote_average": 7.3,
            "overview": "When teenager Elle's first kiss leads to a forbidden romance with the hottest boy in high school, she risks her relationship with her best friend.",
            "release_date": "2018-05-11"
        },
        {
            "popularity": 94.717,
            "vote_count": 7,
            "video": false,
            "poster_path": "/8ziUp2q71vCmMgYY2MRCwI3mSs5.jpg",
            "id": 628917,
            "adult": false,
            "backdrop_path": "/3H1yUIL1KxIuIMRwNMSL9cvifby.jpg",
            "original_language": "en",
            "original_title": "An American Pickle",
            "genre_ids": [
                35
            ],
            "title": "An American Pickle",
            "vote_average": 7.3,
            "overview": "An immigrant worker at a pickle factory is accidentally preserved for 100 years and wakes up in modern day Brooklyn. He learns his only surviving relative is his great grandson, a computer coder who he can’t connect with.",
            "release_date": "2020-08-06"
        },
        {
            "popularity": 58.919,
            "vote_count": 8674,
            "video": false,
            "poster_path": "/7IiTTgloJzvGI1TAYymCfbfl3vT.jpg",
            "id": 496243,
            "adult": false,
            "backdrop_path": "/ApiBzeaa95TNYliSbQ8pJv4Fje7.jpg",
            "original_language": "ko",
            "original_title": "기생충",
            "genre_ids": [
                35,
                18,
                53
            ],
            "title": "Parasite",
            "vote_average": 8.5,
            "overview": "All unemployed, Ki-taek's family takes peculiar interest in the wealthy and glamorous Parks for their livelihood until they get entangled in an unexpected incident.",
            "release_date": "2019-05-30"
        },
        {
            "popularity": 61.227,
            "vote_count": 23269,
            "video": false,
            "poster_path": "/gEU2QniE6E77NI6lCU6MxlNBvIx.jpg",
            "id": 157336,
            "adult": false,
            "backdrop_path": "/xJHokMbljvjADYdit5fK5VQsXEG.jpg",
            "original_language": "en",
            "original_title": "Interstellar",
            "genre_ids": [
                12,
                18,
                878
            ],
            "title": "Interstellar",
            "vote_average": 8.3,
            "overview": "The adventures of a group of explorers who make use of a newly discovered wormhole to surpass the limitations on human space travel and conquer the vast distances involved in an interstellar voyage.",
            "release_date": "2014-11-05"
        },
        {
            "popularity": 75.213,
            "vote_count": 250,
            "video": false,
            "poster_path": "/hPkqY2EMqWUnFEoedukilIUieVG.jpg",
            "id": 531876,
            "adult": false,
            "backdrop_path": "/n1RohH2VoK1CdVI2fXvcP19dSlm.jpg",
            "original_language": "en",
            "original_title": "The Outpost",
            "genre_ids": [
                28,
                18,
                36,
                10752
            ],
            "title": "The Outpost",
            "vote_average": 6.6,
            "overview": "A small unit of U.S. soldiers, alone at the remote Combat Outpost Keating, located deep in the valley of three mountains in Afghanistan, battles to defend against an overwhelming force of Taliban fighters in a coordinated attack. The Battle of Kamdesh, as it was known, was the bloodiest American engagement of the Afghan War in 2009 and Bravo Troop 3-61 CAV became one of the most decorated units of the 19-year conflict.",
            "release_date": "2020-06-24"
        }
    ]
}